wday,0,1,2,3,4,5,6,7,8,9,10,11,12,13,14,15,16,17,18,19,20,21,22,23
0,0,0,0,0,0,0,0,0,0.12,0.25,0.35,0.27,0.53,0.41,0.43,0.57,0.56,0.59,0.47,0.22,0.01,0.03,0,0
1,0,0,0,0,0,0,0,0,0.14,0.26,0.36,0.27,0.54,0.42,0.43,0.56,0.56,0.58,0.5,0.26,0.04,0.03,0,0
2,0,0,0,0,0,0,0,0,0.13,0.25,0.37,0.28,0.54,0.45,0.53,0.7,0.69,0.69,0.53,0.28,0.05,0.04,0,0
3,0,0,0,0,0,0,0,0,0.15,0.29,0.4,0.3,0.56,0.45,0.49,0.61,0.59,0.6,0.49,0.27,0.05,0.04,0,0
4,0,0,0,0,0,0,0,0,0.13,0.27,0.39,0.31,0.53,0.47,0.53,0.68,0.7,0.71,0.56,0.33,0.09,0.06,0,0
5,0,0,0,0,0,0,0,0,0.07,0.26,0.54,0.48,0.47,0.52,0.78,1,1,1,0.71,0.36,0.07,0.06,0,0
6,0,0,0,0,0,0,0,0,0,0,0,0,0,0,0,0,0,0,0,0,0,0,0,0
