{
  "use": "housing",
  "detailed_uses": ["housing", "circulation"],
  "detailed_uses_share": {
    "housing": 0.9,
    "circulation": 0.1
  },
  "occupants": {
    "area_per_occupant": {
      "housing": 30,
      "circulation": 0
    }
  },
  "equipments": {
    "lighting_power": {
      "housing": 8,
      "circulation": 6
    },
    "cooling_power": {
      "housing": 0,
      "circulation": 0
    },
    "elec_power": {
      "housing": 5.7,
      "circulation": 0
    }
  },
  "hvac": {
    "thermal_inertia": {
      "mass_area_ratio": 2.5,
      "mass_heat_capacity": 2.5e5
    },
    "ventilation": {
      "flowrate_per_occupant_on": null,
      "flowrate_per_occupant_off": null,
      "acr_on": 0.75,
      "acr_off": 0.5,
      "infiltration_rate": 0.8,
      "dual_flow_ventilation": 1,
      "heat_recovery_efficiency": 0.75,
      "natural_ventilation": {
        "enabled": 1,
        "opening_ratio": 0.8,
        "max_acr": 15,
        "ext_temp_limit": 16
      }
    },
    "heating": {
      "system_type": "radiative",
      "setpoint_on": 19,
      "setpoint_off": 16
    },
    "cooling": {
      "system_type": null,
      "setpoint_on": 26,
      "setpoint_off": 26
    },
    "hot_water": {
      "temperature": 50,
      "consumption": 8
    }
  },
  "facade": {
    "walls": {
      "u_wall": 0.2,
      "solar_absorption_coeff": 0.4
    },
    "windows": {
      "glazing_ratio": 0.35,
      "u_window": 1.5,
      "window_sw_1":0.4,
      "window_sw_2": 0.1,
      "window_transparent_ratio": 0.9
    },
    "shading_devices": {
      "fixed_shading": {
        "south": {
          "top_width": 0.2,
          "sides_width": 0.15
        },
        "east": {
          "top_width": 0.2,
          "sides_width": 0.15
        },
        "west": {
          "top_width": 0.2,
          "sides_width": 0.15
        },
        "north": {
          "top_width": 0.15,
          "sides_width": 0.15
        }
      },
      "blinds": {
        "radiation_threshold": 300,
        "shading_coeff": 0.2
      }
    }
  },
  "roof": {
    "u_roof": 0.125,
    "solar_absorption_coeff": 0.4
  }
}