{
  "use": "logistics",
  "occupants": {
    "area_per_occupant": 20
  },
  "equipments": {
    "lighting_power": 3,
    "specific_elec_consumption": 7
  },
  "hvac": {
    "thermal_inertia": {
      "mass_area_ratio": 2.5,
      "mass_heat_capacity": 2.5e5
    },
    "ventilation": {
      "flowrate_per_occupant_on": 35,
      "flowrate_per_occupant_off": 0,
      "acr_on": null,
      "acr_off": null,
      "infiltration_rate": 1.7,
      "dual_flow_ventilation": 1,
      "heat_recovery_efficiency": 0.75,
      "natural_ventilation": {
        "enabled": 0,
        "opening_ratio": 0.8,
        "max_acr": 15,
        "ext_temp_limit": 16
      }
    },
    "heating": {
      "system_type": "convective",
      "setpoint_on": 15,
      "setpoint_off": 7
    },
    "cooling": {
      "system_type": "convective",
      "setpoint_on": 26,
      "setpoint_off": 30
    },
    "hot_water": {
      "temperature": 40,
      "consumption": 0
    }
  },
  "geometry": {
    "level_height": 5,
    "ceiling_height": 5
  },
  "facade": {
    "walls": {
      "u_wall": 0.35,
      "solar_absorption_coeff": 0.4
    },
    "windows": {
      "glazing_ratio": 0.1,
      "u_window": 1.7,
      "window_sw_1":0.45,
      "window_sw_2": 0.1,
      "window_transparent_ratio": 0.8
    },
    "shading_devices": {
      "fixed_shading": {
        "south": {
          "top_width": 0.1,
          "sides_width": 0.1
        },
        "east": {
          "top_width": 0.1,
          "sides_width": 0.1
        },
        "west": {
          "top_width": 0.1,
          "sides_width": 0.1
        },
        "north": {
          "top_width": 0.1,
          "sides_width": 0.1
        }
      },
      "blinds": {
        "radiation_threshold": 1000,
        "shading_coeff": 0.2
      }
    }
  },
  "roof": {
    "u_roof": 0.27,
    "solar_absorption_coeff": 0.4
  },
  "solar_panels": {
    "potential_threshold": 900,
    "thermal": {
      "enabled": 0,
      "tilt": null,
      "density": null,
      "B_coeff": null,
      "storage_efficiency": null
    },
    "photovoltaic": {
      "enabled": 1,
      "tilt": 15,
      "density": 0.7,
      "module_efficiency": 0.2,
      "inverter_efficiency": 0.85
    }
  }
}