{
  "use": "office",
  "zones": ["restaurant", "kitchen", "service_area"],
  "zones_share": {
    "restaurant": 0.7,
    "kitchen": 0.2,
    "service_area": 0.1
  },
  "occupants": {
    "area_per_occupant": {
      "restaurant": 1.7,
      "kitchen": 0,
      "service_area": 0
  }
  },
  "equipments": {
    "lighting_power": {
      "restaurant": 6,
      "kitchen": 6,
      "service_area": 6
    },
    "cooling_power": {
      "restaurant": 20,
      "kitchen": 20,
      "service_area": 20
    },
    "specific_elec_consumption": {
      "restaurant": 0,
      "kitchen": 0,
      "service_area": 0
    }
  },
  "hvac": {
    "thermal_inertia": {
      "mass_area_ratio": 2.5,
      "mass_heat_capacity": 2.5e5
    },
    "ventilation": {
      "flowrate_per_occupant_on": 30,
      "flowrate_per_occupant_off": 0,
      "acr_on": null,
      "acr_off": null,
      "infiltration_rate": 0.8,
      "dual_flow_ventilation": 1,
      "heat_recovery_efficiency": 0.75,
      "natural_ventilation": {
        "enabled": 0,
        "opening_ratio": 0.8,
        "max_acr": 15,
        "ext_temp_limit": 16
      }
    },
    "heating": {
      "system_type": "convective",
      "setpoint_on": 19,
      "setpoint_off": 16
    },
    "cooling": {
      "system_type": "convective",
      "setpoint_on": 26,
      "setpoint_off": 30
    },
    "hot_water": {
      "temperature": 40,
      "consumption": 29
    }
  },
  "facade": {
    "walls": {
      "u_wall": 0.2,
      "solar_absorption_coeff": 0.4
    },
    "windows": {
      "glazing_ratio": {
        "south": 0.55,
        "east": 0.55,
        "west": 0.7,
        "north": 0.55
      },
      "u_window": {
        "south": 1.4,
        "east": 1.4,
        "west": 1.2,
        "north": 1.4
      },
      "window_sw_1": 0.4,
      "window_sw_2": 0.1,
      "window_transparent_ratio": 0.9
    },
    "shading_devices": {
      "fixed_shading": {
        "south": {
          "top_width": 0.2,
          "sides_width": 0.15
        },
        "east": {
          "top_width": 0.2,
          "sides_width": 0.15
        },
        "west": {
          "top_width": 0.2,
          "sides_width": 0.15
        },
        "north": {
          "top_width": 0.15,
          "sides_width": 0.15
        }
      },
      "blinds": {
        "radiation_threshold": 150,
        "shading_coeff": 0.2
      }
    }
  },
  "roof": {
    "u_roof": 0.09,
    "solar_absorption_coeff": 0.4
  }
}