wday,0,1,2,3,4,5,6,7,8,9,10,11,12,13,14,15,16,17,18,19,20,21,22,23
0,0.11,0.11,0.11,0.11,0.11,0.11,0.11,0.11,0.55,1,1,1,1,1,1,1,1,1,0.55,0.11,0.11,0.11,0.11,0.11
1,0.11,0.11,0.11,0.11,0.11,0.11,0.11,0.11,0.55,1,1,1,1,1,1,1,1,1,0.55,0.11,0.11,0.11,0.11,0.11
2,0.11,0.11,0.11,0.11,0.11,0.11,0.11,0.11,0.55,1,1,1,1,1,1,1,1,1,0.55,0.11,0.11,0.11,0.11,0.11
3,0.11,0.11,0.11,0.11,0.11,0.11,0.11,0.11,0.55,1,1,1,1,1,1,1,1,1,0.55,0.11,0.11,0.11,0.11,0.11
4,0.11,0.11,0.11,0.11,0.11,0.11,0.11,0.11,0.55,1,1,1,1,1,1,1,1,1,0.55,0.11,0.11,0.11,0.11,0.11
5,0.11,0.11,0.11,0.11,0.11,0.11,0.11,0.11,0.11,0.11,0.11,0.11,0.11,0.11,0.11,0.11,0.11,0.11,0.11,0.11,0.11,0.11,0.11,0.11
6,0.11,0.11,0.11,0.11,0.11,0.11,0.11,0.11,0.11,0.11,0.11,0.11,0.11,0.11,0.11,0.11,0.11,0.11,0.11,0.11,0.11,0.11,0.11,0.11
